module example.com/sampleweb

go 1.16

require (
	github.com/go-logr/logr v0.3.0 // indirect
	github.com/onsi/ginkgo v1.14.1
	github.com/onsi/gomega v1.10.2
	k8s.io/api v0.20.2 // indirect
	k8s.io/apimachinery v0.20.2
	k8s.io/client-go v0.20.2
	sigs.k8s.io/controller-runtime v0.8.3
)
